ECE2504/Project01/Quartus/simulation/qsim/P1Implementation.msim.vcd
$comment
	File created using the following command:
		vcd file P1Implementation.msim.vcd -direction
$end
$date
	Wed Oct 04 21:27:05 2017
$end
$version
	ModelSim Version 10.5b
$end
$timescale
	1ps
$end

$scope module P1Implementation_vlg_vec_tst $end
$var reg 1 ! SW0 $end
$var reg 1 " SW1 $end
$var reg 1 # SW2 $end
$var reg 1 $ SW3 $end
$var wire 1 % SegmentT $end
$var wire 1 & SegmentU $end
$var wire 1 ' SegmentV $end
$var wire 1 ( SegmentW $end
$var wire 1 ) SegmentX $end
$var wire 1 * SegmentY $end
$var wire 1 + SegmentZ $end

$scope module i1 $end
$var wire 1 , gnd $end
$var wire 1 - vcc $end
$var wire 1 . unknown $end
$var tri1 1 / devclrn $end
$var tri1 1 0 devpor $end
$var tri1 1 1 devoe $end
$var wire 1 2 SegmentT~output_o $end
$var wire 1 3 SegmentU~output_o $end
$var wire 1 4 SegmentV~output_o $end
$var wire 1 5 SegmentW~output_o $end
$var wire 1 6 SegmentX~output_o $end
$var wire 1 7 SegmentY~output_o $end
$var wire 1 8 SegmentZ~output_o $end
$var wire 1 9 SW2~input_o $end
$var wire 1 : SW0~input_o $end
$var wire 1 ; SW3~input_o $end
$var wire 1 < SW1~input_o $end
$var wire 1 = inst|inst12~combout $end
$var wire 1 > inst|inst~0_combout $end
$var wire 1 ? inst|inst18~0_combout $end
$var wire 1 @ inst|inst21~0_combout $end
$var wire 1 A inst|inst25~combout $end
$var wire 1 B inst|inst24~combout $end
$var wire 1 C inst|inst20~0_combout $end
$upscope $end
$upscope $end
$enddefinitions $end
#0
$dumpvars
0!
0"
0#
0$
0%
0&
0'
0(
0)
0*
1+
0,
1-
x.
1/
10
11
02
03
04
05
06
07
18
09
0:
0;
0<
0=
0>
0?
0@
0A
0B
1C
$end
#100000
1"
1<
1B
1A
1@
1=
12
15
16
17
1*
1)
1(
1%
#200000
1#
1!
0"
19
1:
0<
0C
0A
0@
0=
1?
14
02
05
06
08
0+
0)
0(
0%
1'
#300000
1"
1<
1A
0?
04
16
1)
0'
#400000
0!
0"
0:
0<
0B
1@
1=
12
15
07
0*
1(
1%
#500000
1"
1<
0@
1>
0=
02
13
05
0(
1&
0%
#600000
1$
0#
0"
1;
09
0<
0A
06
0)
#700000
1"
1<
1C
1B
1A
1@
0>
03
15
16
17
18
1+
1*
1)
1(
0&
#800000
1!
1#
0"
1:
19
0<
0B
0A
0@
0C
08
05
06
07
0*
0)
0(
0+
#900000
1"
1<
1A
1@
15
16
1)
1(
