Project02/Quartus/simulation/qsim/DP2_Fall2017.msim.vcd
$comment
	File created using the following command:
		vcd file DP2_Fall2017.msim.vcd -direction
$end
$date
	Wed Nov 01 23:13:50 2017
$end
$version
	ModelSim Version 10.5b
$end
$timescale
	1ps
$end

$scope module DP2_Fall2017_vlg_vec_tst $end
$var reg 1 ! CLOCK_50 $end
$var reg 2 " KEY [1:0] $end
$var reg 4 # SW [3:0] $end
$var wire 1 $ LED [7] $end
$var wire 1 % LED [6] $end
$var wire 1 & LED [5] $end
$var wire 1 ' LED [4] $end
$var wire 1 ( LED [3] $end
$var wire 1 ) LED [2] $end
$var wire 1 * LED [1] $end
$var wire 1 + LED [0] $end

$scope module i1 $end
$var wire 1 , gnd $end
$var wire 1 - vcc $end
$var wire 1 . unknown $end
$var tri1 1 / devclrn $end
$var tri1 1 0 devpor $end
$var tri1 1 1 devoe $end
$var wire 1 2 LED[7]~output_o $end
$var wire 1 3 LED[6]~output_o $end
$var wire 1 4 LED[5]~output_o $end
$var wire 1 5 LED[4]~output_o $end
$var wire 1 6 LED[3]~output_o $end
$var wire 1 7 LED[2]~output_o $end
$var wire 1 8 LED[1]~output_o $end
$var wire 1 9 LED[0]~output_o $end
$var wire 1 : SW[2]~input_o $end
$var wire 1 ; SW[3]~input_o $end
$var wire 1 < inst1|MY_MUX|Mux5~0_combout $end
$var wire 1 = SW[0]~input_o $end
$var wire 1 > SW[1]~input_o $end
$var wire 1 ? inst1|MY_MUX|Mux6~0_combout $end
$var wire 1 @ CLOCK_50~input_o $end
$var wire 1 A CLOCK_50~inputclkctrl_outclk $end
$var wire 1 B KEY[1]~input_o $end
$var wire 1 C inst|Selector0~0_combout $end
$var wire 1 D inst|resetD[0]~feeder_combout $end
$var wire 1 E KEY[0]~input_o $end
$var wire 1 F inst|key_state.KEY_OPEN~q $end
$var wire 1 G inst|Selector1~0_combout $end
$var wire 1 H inst|key_state.KEY_PUSHED~q $end
$var wire 1 I inst|Selector2~0_combout $end
$var wire 1 J inst|key_state.KEY_RELEASED~q $end
$var wire 1 K inst|counter[0]~4_combout $end
$var wire 1 L inst|counter[1]~3_combout $end
$var wire 1 M inst|counter[2]~2_combout $end
$var wire 1 N inst|counter[3]~0_combout $end
$var wire 1 O inst|counter[3]~1_combout $end
$var wire 1 P inst2|rom~3_combout $end
$var wire 1 Q inst2|rom~2_combout $end
$var wire 1 R inst2|rom~5_combout $end
$var wire 1 S inst2|rom~6_combout $end
$var wire 1 T inst1|alu0|result[7]~2_combout $end
$var wire 1 U inst2|rom~1_combout $end
$var wire 1 V inst2|rom~0_combout $end
$var wire 1 W inst2|rom~4_combout $end
$var wire 1 X inst1|alu0|result[7]~45_combout $end
$var wire 1 Y inst1|alu0|result[7]~46_combout $end
$var wire 1 Z inst2|rom~10_combout $end
$var wire 1 [ inst1|alu0|add_b[6]~0_combout $end
$var wire 1 \ inst1|alu0|Equal7~1_combout $end
$var wire 1 ] inst1|alu0|Equal7~0_combout $end
$var wire 1 ^ inst1|alu0|add_b[5]~3_combout $end
$var wire 1 _ inst2|rom~13_combout $end
$var wire 1 ` inst1|alu0|add_b[3]~5_combout $end
$var wire 1 a inst2|rom~12_combout $end
$var wire 1 b inst1|alu0|add_a~0_combout $end
$var wire 1 c inst2|rom~14_combout $end
$var wire 1 d inst2|rom~15_combout $end
$var wire 1 e inst1|alu0|add_b[2]~6_combout $end
$var wire 1 f inst2|rom~17_combout $end
$var wire 1 g inst1|alu0|add_b[1]~7_combout $end
$var wire 1 h inst2|rom~19_combout $end
$var wire 1 i inst1|alu0|add_b[0]~8_combout $end
$var wire 1 j inst2|rom~18_combout $end
$var wire 1 k inst1|alu0|addg|fa0[0]|g2~0_combout $end
$var wire 1 l inst2|rom~16_combout $end
$var wire 1 m inst1|alu0|addg|fa0[1]|g2~0_combout $end
$var wire 1 n inst1|alu0|addg|fa0[2]|g2~0_combout $end
$var wire 1 o inst1|alu0|addg|fa0[3]|g2~0_combout $end
$var wire 1 p inst2|rom~11_combout $end
$var wire 1 q inst2|rom~7_combout $end
$var wire 1 r inst1|alu0|add_b[4]~4_combout $end
$var wire 1 s inst1|alu0|addg|fa0[4]|g2~0_combout $end
$var wire 1 t inst2|rom~9_combout $end
$var wire 1 u inst1|alu0|addg|fa0[5]|g2~0_combout $end
$var wire 1 v inst1|alu0|add_b[6]~2_combout $end
$var wire 1 w inst2|rom~8_combout $end
$var wire 1 x inst1|alu0|addg|fa0[6]|g2~0_combout $end
$var wire 1 y inst1|alu0|add_b[7]~1_combout $end
$var wire 1 z inst1|alu0|addg|fa0[7]|g1|g0~combout $end
$var wire 1 { inst1|alu0|result[7]~3_combout $end
$var wire 1 | inst1|alu0|result[7]~4_combout $end
$var wire 1 } inst1|alu0|result[7]~5_combout $end
$var wire 1 ~ inst1|alu0|result[7]~6_combout $end
$var wire 1 !! inst1|MY_MUX|Mux0~0_combout $end
$var wire 1 "! inst1|MY_MUX|Mux0~1_combout $end
$var wire 1 #! inst1|MY_MUX|Mux1~0_combout $end
$var wire 1 $! inst1|MY_MUX|Mux4~2_combout $end
$var wire 1 %! inst1|MY_MUX|Mux1~1_combout $end
$var wire 1 &! inst1|alu0|addg|fa0[6]|g1|g0~combout $end
$var wire 1 '! inst1|alu0|result[6]~7_combout $end
$var wire 1 (! inst1|alu0|result[6]~43_combout $end
$var wire 1 )! inst1|alu0|result[6]~44_combout $end
$var wire 1 *! inst1|alu0|result[6]~8_combout $end
$var wire 1 +! inst1|MY_MUX|Mux1~2_combout $end
$var wire 1 ,! inst1|MY_MUX|Mux2~1_combout $end
$var wire 1 -! inst1|alu0|addg|fa0[5]|g1|g0~combout $end
$var wire 1 .! inst1|alu0|result[5]~9_combout $end
$var wire 1 /! inst1|alu0|result[5]~41_combout $end
$var wire 1 0! inst1|alu0|result[5]~42_combout $end
$var wire 1 1! inst1|alu0|result[5]~10_combout $end
$var wire 1 2! inst1|MY_MUX|Mux2~0_combout $end
$var wire 1 3! inst1|MY_MUX|Mux2~2_combout $end
$var wire 1 4! inst1|alu0|addg|fa0[4]|g1|g0~combout $end
$var wire 1 5! inst1|alu0|result[4]~11_combout $end
$var wire 1 6! inst1|alu0|result[4]~39_combout $end
$var wire 1 7! inst1|alu0|result[4]~40_combout $end
$var wire 1 8! inst1|alu0|result[4]~12_combout $end
$var wire 1 9! inst1|MY_MUX|Mux3~1_combout $end
$var wire 1 :! inst1|MY_MUX|Mux3~0_combout $end
$var wire 1 ;! inst1|MY_MUX|Mux3~2_combout $end
$var wire 1 <! inst1|MY_MUX|Mux4~7_combout $end
$var wire 1 =! inst1|MY_MUX|Mux4~8_combout $end
$var wire 1 >! inst1|alu0|status~0_combout $end
$var wire 1 ?! inst1|MY_MUX|Mux4~4_combout $end
$var wire 1 @! inst1|alu0|addg|fa0[3]|g1|g0~combout $end
$var wire 1 A! inst1|alu0|result[3]~13_combout $end
$var wire 1 B! inst1|alu0|result[3]~37_combout $end
$var wire 1 C! inst1|alu0|result[3]~38_combout $end
$var wire 1 D! inst1|alu0|result[3]~14_combout $end
$var wire 1 E! inst1|MY_MUX|Mux4~3_combout $end
$var wire 1 F! inst1|alu0|addg|fa0[7]|g2~0_combout $end
$var wire 1 G! inst1|MY_MUX|Mux4~5_combout $end
$var wire 1 H! inst1|MY_MUX|Mux4~6_combout $end
$var wire 1 I! inst1|MY_MUX|Mux4~9_combout $end
$var wire 1 J! inst1|alu0|result[7]~17_combout $end
$var wire 1 K! inst1|alu0|result[7]~16_combout $end
$var wire 1 L! inst1|alu0|result[2]~18_combout $end
$var wire 1 M! inst1|alu0|addg|fa0[2]|g1|g0~combout $end
$var wire 1 N! inst1|alu0|result[7]~15_combout $end
$var wire 1 O! inst1|alu0|result[2]~19_combout $end
$var wire 1 P! inst1|alu0|result[2]~20_combout $end
$var wire 1 Q! inst1|MY_MUX|Mux5~3_combout $end
$var wire 1 R! inst1|MY_MUX|Mux5~1_combout $end
$var wire 1 S! inst1|MY_MUX|Mux5~2_combout $end
$var wire 1 T! inst1|MY_MUX|Mux5~4_combout $end
$var wire 1 U! inst1|alu0|addg|fa0[1]|g1|g0~combout $end
$var wire 1 V! inst1|alu0|result[7]~30_combout $end
$var wire 1 W! inst1|alu0|result[7]~32_combout $end
$var wire 1 X! inst1|alu0|result[7]~31_combout $end
$var wire 1 Y! inst1|alu0|result[1]~33_combout $end
$var wire 1 Z! inst1|alu0|result[1]~34_combout $end
$var wire 1 [! inst1|alu0|result[1]~28_combout $end
$var wire 1 \! inst1|alu0|result[1]~27_combout $end
$var wire 1 ]! inst1|alu0|result[1]~29_combout $end
$var wire 1 ^! inst1|alu0|result[1]~35_combout $end
$var wire 1 _! inst1|MY_MUX|Mux5~5_combout $end
$var wire 1 `! inst1|MY_MUX|Mux5~6_combout $end
$var wire 1 a! inst1|MY_MUX|Mux5~7_combout $end
$var wire 1 b! inst1|alu0|result[0]~23_combout $end
$var wire 1 c! inst1|alu0|result[0]~22_combout $end
$var wire 1 d! inst1|alu0|result[0]~25_combout $end
$var wire 1 e! inst1|alu0|result[0]~24_combout $end
$var wire 1 f! inst1|alu0|result[0]~36_combout $end
$var wire 1 g! inst1|alu0|result[0]~21_combout $end
$var wire 1 h! inst1|alu0|result[0]~26_combout $end
$var wire 1 i! inst1|MY_MUX|Mux5~8_combout $end
$var wire 1 j! inst1|MY_MUX|Mux5~9_combout $end
$var wire 1 k! inst1|MY_MUX|Mux6~1_combout $end
$var wire 1 l! inst1|MY_MUX|Mux6~2_combout $end
$var wire 1 m! inst1|MY_MUX|Mux6~3_combout $end
$var wire 1 n! inst1|MY_MUX|Mux6~4_combout $end
$var wire 1 o! inst1|MY_MUX|Mux6~5_combout $end
$var wire 1 p! inst1|MY_MUX|Mux7~0_combout $end
$var wire 1 q! inst1|MY_MUX|Mux7~1_combout $end
$var wire 1 r! inst1|MY_MUX|Mux7~2_combout $end
$var wire 1 s! inst1|MY_MUX|Mux7~3_combout $end
$var wire 1 t! inst1|MY_MUX|Mux7~4_combout $end
$var wire 1 u! inst2|q [19] $end
$var wire 1 v! inst2|q [18] $end
$var wire 1 w! inst2|q [17] $end
$var wire 1 x! inst2|q [16] $end
$var wire 1 y! inst2|q [15] $end
$var wire 1 z! inst2|q [14] $end
$var wire 1 {! inst2|q [13] $end
$var wire 1 |! inst2|q [12] $end
$var wire 1 }! inst2|q [11] $end
$var wire 1 ~! inst2|q [10] $end
$var wire 1 !" inst2|q [9] $end
$var wire 1 "" inst2|q [8] $end
$var wire 1 #" inst2|q [7] $end
$var wire 1 $" inst2|q [6] $end
$var wire 1 %" inst2|q [5] $end
$var wire 1 &" inst2|q [4] $end
$var wire 1 '" inst2|q [3] $end
$var wire 1 (" inst2|q [2] $end
$var wire 1 )" inst2|q [1] $end
$var wire 1 *" inst2|q [0] $end
$var wire 1 +" inst|counter [3] $end
$var wire 1 ," inst|counter [2] $end
$var wire 1 -" inst|counter [1] $end
$var wire 1 ." inst|counter [0] $end
$var wire 1 /" inst|resetD [1] $end
$var wire 1 0" inst|resetD [0] $end
$upscope $end
$upscope $end
$enddefinitions $end
#0
$dumpvars
0!
b0 "
b0 #
0+
0*
0)
0(
0'
0&
0%
0$
0,
1-
x.
1/
10
11
02
03
04
05
06
07
08
09
0:
0;
0<
0=
0>
0?
0@
0A
0B
0C
1D
0E
0F
0G
0H
0I
0J
0K
0L
0M
0N
0O
0P
1Q
0R
1S
0T
0U
1V
0W
1X
1Y
1Z
0[
0\
0]
0^
1_
0`
0a
0b
0c
0d
0e
0f
0g
1h
1i
1j
0k
0l
0m
0n
0o
1p
0q
0r
0s
0t
0u
0v
0w
0x
0y
0z
0{
0|
0}
1~
0!!
0"!
0#!
0$!
0%!
0&!
0'!
1(!
1)!
1*!
0+!
0,!
0-!
0.!
1/!
10!
11!
02!
03!
04!
05!
16!
17!
18!
09!
0:!
0;!
0<!
0=!
0>!
0?!
0@!
0A!
1B!
1C!
1D!
0E!
0F!
0G!
0H!
0I!
1J!
1K!
1L!
0M!
0N!
1O!
0P!
0Q!
0R!
0S!
0T!
0U!
0V!
1W!
1X!
1Y!
1Z!
0[!
0\!
0]!
1^!
0_!
0`!
0a!
0b!
0c!
0d!
0e!
1f!
0g!
1h!
0i!
0j!
0k!
0l!
0m!
0n!
0o!
0p!
0q!
0r!
0s!
0t!
0*"
0)"
0("
0'"
0&"
0%"
0$"
0#"
0""
0!"
0~!
0}!
0|!
0{!
0z!
0y!
0x!
0w!
0v!
0u!
0."
0-"
0,"
0+"
00"
0/"
$end
#2500
1!
1@
1A
1|!
1""
1*"
1'"
1%"
1#"
1v!
1w!
07!
14!
1k
1b!
1N!
0C!
00!
0X
1e!
1d!
0Z!
0O!
1>!
1|
1{
1]
1T
08!
15!
1U!
0e!
0D!
01!
0Y
0h!
0^!
1Q!
1v
1r
0i
1g
1e
0*!
0~
1_!
18!
1Z!
1&!
04!
1s
0U!
1m
1M!
0_!
1^!
1'!
05!
1-!
0Z!
0M!
1n
1O!
1*!
08!
1.!
0^!
0O!
1@!
0Q!
11!
1Q!
1A!
1D!
#5000
0!
0@
0A
#7500
1!
1@
1A
#10000
0!
0@
0A
#12500
1!
1@
1A
#15000
0!
0@
0A
#17500
1!
1@
1A
#20000
b1 "
0!
1E
0@
0A
#22500
1!
1@
1A
10"
#25000
0!
0@
0A
#27500
1!
1@
1A
1/"
#30000
0!
0@
0A
#32500
1!
1@
1A
#35000
0!
0@
0A
#37500
1!
1@
1A
#40000
b11 "
0!
1B
0@
0A
1G
1C
#42500
1!
1@
1A
1H
1F
#45000
0!
0@
0A
#47500
1!
1@
1A
#50000
0!
0@
0A
#52500
1!
1@
1A
#55000
0!
0@
0A
#57500
1!
1@
1A
#60000
b1 "
0!
0B
0@
0A
1I
0G
#62500
1!
1@
1A
1J
0H
1K
0C
0I
#65000
0!
0@
0A
#67500
1!
1@
1A
1."
0J
0F
1p!
1w
1t
1q
1l
1d
1c
0_
1W
0Q
1P
1q!
#70000
0!
0@
0A
#72500
1!
1@
1A
1z!
1{!
1&"
1!"
1("
1~!
0'"
1$"
0w!
1x!
0&!
1#!
1x
0-!
1,!
1u
0r
0W!
1U!
0K!
0B!
0e
1M!
0N!
1`
0v
1X
0Y!
0L!
17!
10!
0]
1\
0'!
1G!
1z
0.!
14!
0s
1\!
1V!
0M!
1N!
0@!
1o
1y
1v
1r
0k
1i
0g
1e
0`
1^
0*!
1}
01!
15!
1Z!
1O!
0N!
0A!
1s
1F!
0z
1&!
0m
1k
1M!
1@!
0o
1_!
1~
18!
1^!
0Q!
0O!
0D!
1-!
0G!
0}
1'!
0M!
0U!
1m
1N!
1A!
04!
0_!
1Q!
1.!
0~
1*!
1O!
0N!
0\!
0V!
1M!
1D!
05!
11!
0Q!
0O!
0Z!
1N!
08!
1Q!
0^!
1O!
0Q!
#75000
0!
0@
0A
#77500
1!
1@
1A
#80000
b1000 #
b1001 #
0!
1=
1;
0@
0A
0p!
1R!
1<
1S!
1r!
1T!
1s!
1j!
1t!
19
17
1)
1+
#82500
1!
1@
1A
#85000
0!
0@
0A
#87500
1!
1@
1A
#90000
0!
0@
0A
#92500
1!
1@
1A
#95000
0!
0@
0A
#97500
1!
1@
1A
#100000
0!
0@
0A
#102500
1!
1@
1A
#105000
0!
0@
0A
#107500
1!
1@
1A
#110000
0!
0@
0A
#112500
1!
1@
1A
#115000
0!
0@
0A
#117500
1!
1@
1A
#120000
b1011 #
b1010 #
0!
0=
1>
0@
0A
0q!
1p!
0R!
1l!
19!
1%!
13!
14
0r!
1q!
1m!
1&
1;!
1+!
13
15
0s!
1r!
1n!
1'
1%
1s!
0t!
1o!
18
09
0+
1*
1t!
19
1+
#122500
1!
1@
1A
#125000
0!
0@
0A
#127500
1!
1@
1A
#130000
0!
0@
0A
#132500
1!
1@
1A
#135000
0!
0@
0A
#137500
1!
1@
1A
#140000
0!
0@
0A
#142500
1!
1@
1A
#145000
0!
0@
0A
#147500
1!
1@
1A
#150000
0!
0@
0A
#152500
1!
1@
1A
#155000
0!
0@
0A
#157500
1!
1@
1A
#160000
b1011 #
0!
1=
0@
0A
1k!
1R!
1<!
1:!
1!!
0;!
05
0l!
0'
1;!
1"!
12
15
0m!
1'
1$
0n!
0o!
08
0*
#162500
1!
1@
1A
#165000
0!
0@
0A
#167500
1!
1@
1A
#170000
0!
0@
0A
#172500
1!
1@
1A
#175000
0!
0@
0A
#177500
1!
1@
1A
#180000
0!
0@
0A
#182500
1!
1@
1A
#185000
0!
0@
0A
#187500
1!
1@
1A
#190000
0!
0@
0A
#192500
1!
1@
1A
#195000
0!
0@
0A
#197500
1!
1@
1A
#200000
b1111 #
b1101 #
b1100 #
0!
0=
0>
1:
0@
0A
0k!
0R!
0<!
0:!
12!
1$!
0!!
1?
1l!
1=!
09!
0%!
0<
03!
04
0l!
0S!
0=!
1E!
0r!
0&
0;!
13!
0"!
02
14
05
1H!
0s!
0'
1&
0$
1I!
0t!
09
16
1(
0+
#202500
1!
1@
1A
#205000
0!
0@
0A
#207500
1!
1@
1A
#210000
0!
0@
0A
#212500
1!
1@
1A
#215000
0!
0@
0A
#217500
1!
1@
1A
#220000
0!
0@
0A
#222500
1!
1@
1A
#225000
0!
0@
0A
#227500
1!
1@
1A
#230000
0!
0@
0A
#232500
1!
1@
1A
#235000
0!
0@
0A
#237500
1!
1@
1A
#240000
b1101 #
0!
1=
0@
0A
0p!
1R!
1?!
02!
0,!
0$!
0?
1S!
1n!
1a!
0T!
0E!
03!
0+!
03
04
0H!
0&
0%
1o!
0j!
07
18
1*
0)
0I!
06
0(
#242500
1!
1@
1A
#245000
0!
0@
0A
#247500
1!
1@
1A
#250000
0!
0@
0A
#252500
1!
1@
1A
#255000
0!
0@
0A
#257500
1!
1@
1A
#260000
0!
0@
0A
#262500
1!
1@
1A
#265000
0!
0@
0A
#267500
1!
1@
1A
#270000
0!
0@
0A
#272500
1!
1@
1A
#275000
0!
0@
0A
#277500
1!
1@
1A
#280000
b1111 #
b1110 #
0!
0=
1>
0@
0A
0q!
1p!
0R!
0?!
12!
1,!
1$!
1r!
1m!
1l!
1%!
0r!
1q!
0m!
0a!
1s!
1T!
13!
1+!
13
14
0s!
0n!
1&
1%
1t!
1j!
17
19
1+
1)
0t!
0o!
08
09
0+
0*
#282500
1!
1@
1A
#285000
0!
0@
0A
#287500
1!
1@
1A
#290000
0!
0@
0A
#292500
1!
1@
1A
#295000
0!
0@
0A
#297500
1!
1@
1A
#300000
0!
0@
0A
#302500
1!
1@
1A
#305000
0!
0@
0A
#307500
1!
1@
1A
#310000
0!
0@
0A
#312500
1!
1@
1A
#315000
0!
0@
0A
#317500
1!
1@
1A
#320000
b1111 #
0!
1=
0@
0A
1k!
1R!
1?!
1<!
1:!
02!
0,!
0$!
1!!
0l!
1r!
1n!
1m!
1a!
0T!
1;!
03!
04
15
1s!
1'
0&
1o!
0j!
07
18
1*
0)
1t!
19
1+
#322500
1!
1@
1A
#325000
0!
0@
0A
#327500
1!
1@
1A
#330000
0!
0@
0A
#332500
1!
1@
1A
#335000
0!
0@
0A
#337500
1!
1@
1A
#340000
0!
0@
0A
#342500
1!
1@
1A
#345000
0!
0@
0A
#347500
1!
1@
1A
#350000
0!
0@
0A
#352500
1!
1@
1A
#355000
0!
0@
0A
#357500
1!
1@
1A
#360000
b11 "
0!
1B
0@
0A
1G
1C
#362500
1!
1@
1A
1H
1F
#365000
0!
0@
0A
#367500
1!
1@
1A
#370000
0!
0@
0A
#372500
1!
1@
1A
#375000
0!
0@
0A
#377500
1!
1@
1A
#380000
0!
0@
0A
#382500
1!
1@
1A
#385000
0!
0@
0A
#387500
1!
1@
1A
#390000
0!
0@
0A
#392500
1!
1@
1A
#395000
0!
0@
0A
#397500
1!
1@
1A
#400000
b1011 #
b1001 #
b1000 #
b1 "
0!
0B
0=
0>
0:
0@
0A
0k!
0R!
0?!
0<!
0:!
1,!
0!!
0r!
0m!
1l!
1=!
0%!
1<
1I
0G
0l!
0S!
1r!
0n!
1m!
0a!
0=!
0s!
1T!
0;!
1I!
0+!
03
16
05
0m!
0T!
1s!
1n!
0'
1(
0%
0o!
0t!
0I!
1j!
17
06
09
08
0n!
0*
0+
0(
1)
0j!
1t!
1o!
18
19
07
0)
1+
1*
0o!
08
0*
#402500
1!
1@
1A
1J
0H
1L
0K
0C
0I
#405000
0!
0@
0A
#407500
1!
1@
1A
1-"
0."
0J
0F
1k!
0p!
0t
0p
0h
1f
0V
1U
0S
1l!
0q!
1m!
0r!
1n!
0s!
1o!
0t!
09
18
1*
0+
#410000
0!
0@
0A
#412500
1!
1@
1A
0{!
0|!
0*"
1)"
0#"
1y!
0v!
0/!
0-!
0,!
07!
14!
0s
0f!
1c!
0b!
0X!
0i
1W!
1K!
1g
0y
0X
1z
1Y
1g!
0O!
1L!
0>!
0|
0{
0\
0T
00!
0.!
1-!
0u
1e!
0d!
1Y!
0k
1U!
0z
0Y
1~
1h!
1Q!
1O!
0A!
0'!
1f!
0v
0r
1i
0g
0e
0^
0*!
01!
0x
0h!
1Z!
0m
1\!
1V!
0~
0Q!
0D!
1*!
04!
1k
0M!
0-!
1G!
0F!
1z
1^!
1M!
0n
0U!
1m
0N!
0G!
1N!
0@!
0\!
0V!
0M!
1n
0N!
1@!
#415000
0!
0@
0A
#417500
1!
1@
1A
#420000
0!
0@
0A
#422500
1!
1@
1A
#425000
0!
0@
0A
#427500
1!
1@
1A
#430000
0!
0@
0A
#432500
1!
1@
1A
#435000
0!
0@
0A
#437500
1!
1@
1A
#440000
b1001 #
0!
1=
0@
0A
1q!
0k!
1,!
1r!
0l!
1s!
0m!
0n!
1t!
19
1+
0o!
08
0*
#442500
1!
1@
1A
#445000
0!
0@
0A
#447500
1!
1@
1A
#450000
0!
0@
0A
#452500
1!
1@
1A
#455000
0!
0@
0A
#457500
1!
1@
1A
#460000
0!
0@
0A
#462500
1!
1@
1A
#465000
0!
0@
0A
#467500
1!
1@
1A
#470000
0!
0@
0A
#472500
1!
1@
1A
#475000
0!
0@
0A
#477500
1!
1@
1A
#480000
b1011 #
b1010 #
0!
0=
1>
0@
0A
0q!
1p!
0,!
1!!
1l!
1S!
1%!
13!
14
0r!
1q!
1m!
1T!
1&
03!
1"!
1+!
13
12
04
0s!
1r!
1n!
0&
1$
1%
1j!
17
1s!
1)
0t!
1o!
18
09
0+
1*
1t!
19
1+
#482500
1!
1@
1A
#485000
0!
0@
0A
#487500
1!
1@
1A
#490000
0!
0@
0A
#492500
1!
1@
1A
#495000
0!
0@
0A
#497500
1!
1@
1A
#500000
0!
0@
0A
#502500
1!
1@
1A
#505000
0!
0@
0A
#507500
1!
1@
1A
#510000
0!
0@
0A
#512500
1!
1@
1A
#515000
0!
0@
0A
#517500
1!
1@
1A
#520000
b1011 #
0!
1=
0@
0A
0q!
1k!
1R!
1<!
1:!
1,!
0!!
0r!
1;!
13!
0"!
02
14
15
0s!
1'
1&
0$
0t!
09
0+
#522500
1!
1@
1A
#525000
0!
0@
0A
#527500
1!
1@
1A
#530000
0!
0@
0A
#532500
1!
1@
1A
#535000
0!
0@
0A
#537500
1!
1@
1A
#540000
0!
0@
0A
#542500
1!
1@
1A
#545000
0!
0@
0A
#547500
1!
1@
1A
#550000
0!
0@
0A
#552500
1!
1@
1A
#555000
0!
0@
0A
#557500
1!
1@
1A
#560000
b1111 #
b1101 #
b1100 #
0!
0=
0>
1:
0@
0A
1q!
0p!
0R!
0<!
0:!
1$!
1?
1=!
0%!
0<
03!
04
0q!
0S!
0=!
0m!
0&
0;!
05
0n!
0'
#562500
1!
1@
1A
#565000
0!
0@
0A
#567500
1!
1@
1A
#570000
0!
0@
0A
#572500
1!
1@
1A
#575000
0!
0@
0A
#577500
1!
1@
1A
#580000
0!
0@
0A
#582500
1!
1@
1A
#585000
0!
0@
0A
#587500
1!
1@
1A
#590000
0!
0@
0A
#592500
1!
1@
1A
#595000
0!
0@
0A
#597500
1!
1@
1A
#600000
b1101 #
0!
1=
0@
0A
1q!
0k!
1?!
0,!
0$!
0?
0l!
1a!
0T!
0+!
0o!
08
03
0%
0*
0j!
07
0)
#602500
1!
1@
1A
#605000
0!
0@
0A
#607500
1!
1@
1A
#610000
0!
0@
0A
#612500
1!
1@
1A
#615000
0!
0@
0A
#617500
1!
1@
1A
#620000
0!
0@
0A
#622500
1!
1@
1A
#625000
0!
0@
0A
#627500
1!
1@
1A
#630000
0!
0@
0A
#632500
1!
1@
1A
#635000
0!
0@
0A
#637500
1!
1@
1A
#640000
b1111 #
b1110 #
0!
0=
1>
0@
0A
0q!
1p!
0?!
1,!
1$!
1!!
1r!
1m!
1l!
1S!
1%!
0r!
1q!
1n!
0m!
0a!
1s!
1T!
13!
1+!
13
14
0s!
0n!
1&
1%
1o!
1t!
1j!
17
19
18
1*
1+
1)
0t!
0o!
08
09
0+
0*
#642500
1!
1@
1A
#645000
0!
0@
0A
#647500
1!
1@
1A
#650000
0!
0@
0A
#652500
1!
1@
1A
#655000
0!
0@
0A
#657500
1!
1@
1A
#660000
0!
0@
0A
#662500
1!
1@
1A
#665000
0!
0@
0A
#667500
1!
1@
1A
#670000
0!
0@
0A
#672500
1!
1@
1A
#675000
0!
0@
0A
#677500
1!
1@
1A
#680000
b1111 #
0!
1=
0@
0A
0q!
1k!
1R!
1?!
1<!
1:!
0,!
0$!
0!!
1r!
1m!
1a!
0T!
1;!
03!
04
15
1s!
1n!
1'
0&
0j!
07
0)
1t!
1o!
18
19
1+
1*
#682500
1!
1@
1A
#685000
0!
0@
0A
#687500
1!
1@
1A
#690000
0!
0@
0A
#692500
1!
1@
1A
#695000
0!
0@
0A
#697500
1!
1@
1A
#700000
0!
0@
0A
#702500
1!
1@
1A
#705000
0!
0@
0A
#707500
1!
1@
1A
#710000
0!
0@
0A
#712500
1!
1@
1A
#715000
0!
0@
0A
#717500
1!
1@
1A
#720000
b11 "
0!
1B
0@
0A
1G
1C
#722500
1!
1@
1A
1H
1F
#725000
0!
0@
0A
#727500
1!
1@
1A
#730000
0!
0@
0A
#732500
1!
1@
1A
#735000
0!
0@
0A
#737500
1!
1@
1A
#740000
0!
0@
0A
#742500
1!
1@
1A
#745000
0!
0@
0A
#747500
1!
1@
1A
#750000
0!
0@
0A
#752500
1!
1@
1A
#755000
0!
0@
0A
#757500
1!
1@
1A
#760000
b1011 #
b1001 #
b1000 #
b1 "
0!
0B
0=
0>
0:
0@
0A
1q!
0p!
0R!
0?!
0<!
0:!
0r!
0m!
1=!
0%!
1<
1I
0G
1r!
0q!
0S!
0n!
1m!
0a!
0=!
0s!
1T!
0;!
1I!
0+!
03
16
05
1s!
0r!
0T!
1n!
0'
1(
0%
0o!
0t!
0I!
1j!
17
06
09
08
0s!
0*
0+
0(
1)
1t!
0j!
1o!
18
07
19
1+
0)
1*
0t!
09
0+
#762500
1!
1@
1A
1J
0H
1K
0C
0I
#765000
0!
0@
0A
#767500
1!
1@
1A
1."
0J
0F
1p!
0w
1t
0q
1p
0f
0d
1a
0Z
1V
0U
1Q
0P
1q!
1r!
1s!
1t!
19
1+
#770000
0!
0@
0A
#772500
1!
1@
1A
0z!
1{!
0&"
1|!
0)"
0("
1}!
0%"
1#"
0y!
1w!
0x!
0&!
0#!
1-!
1,!
14!
0W!
0K!
0J!
0@!
1o
0(!
0z
1b!
0Y!
0L!
04!
1s
0)!
0e!
0Z!
0O!
0-!
1u
0*!
0^!
1Q!
1&!
1_!
#775000
0!
0@
0A
#777500
1!
1@
1A
#780000
0!
0@
0A
#782500
1!
1@
1A
#785000
0!
0@
0A
#787500
1!
1@
1A
#790000
0!
0@
0A
#792500
1!
1@
1A
#795000
0!
0@
0A
#797500
1!
1@
1A
#800000
b1001 #
0!
1=
0@
0A
0q!
0p!
0,!
1#!
0r!
0s!
0t!
09
0+
#802500
1!
1@
1A
#805000
0!
0@
0A
#807500
1!
1@
1A
#810000
0!
0@
0A
#812500
1!
1@
1A
#815000
0!
0@
0A
#817500
1!
1@
1A
#820000
0!
0@
0A
#822500
1!
1@
1A
#825000
0!
0@
0A
#827500
1!
1@
1A
#830000
0!
0@
0A
#832500
1!
1@
1A
#835000
0!
0@
0A
#837500
1!
1@
1A
#840000
b1011 #
b1010 #
0!
0=
1>
0@
0A
1p!
0k!
1,!
0#!
0l!
1S!
0Q!
1=!
19!
1%!
1q!
1l!
0m!
1T!
13!
1I!
1;!
15
16
14
1r!
1m!
0n!
1&
1(
1'
1j!
17
1s!
1n!
1)
0o!
08
0*
1t!
1o!
18
19
1+
1*
#842500
1!
1@
1A
#845000
0!
0@
0A
#847500
1!
1@
1A
#850000
0!
0@
0A
#852500
1!
1@
1A
#855000
0!
0@
0A
#857500
1!
1@
1A
#860000
0!
0@
0A
#862500
1!
1@
1A
#865000
0!
0@
0A
#867500
1!
1@
1A
#870000
0!
0@
0A
#872500
1!
1@
1A
#875000
0!
0@
0A
#877500
1!
1@
1A
#880000
b1011 #
0!
1=
0@
0A
0q!
1k!
1R!
1<!
0,!
1#!
1!!
0;!
05
0r!
0l!
0S!
0=!
0'
03!
1+!
1"!
12
13
04
0s!
0m!
0T!
0&
1%
1$
0I!
06
0n!
0(
0t!
0j!
07
09
0+
0)
0o!
08
0*
#882500
1!
1@
1A
#885000
0!
0@
0A
#887500
1!
1@
1A
#890000
0!
0@
0A
#892500
1!
1@
1A
#895000
0!
0@
0A
#897500
1!
1@
1A
#900000
0!
0@
0A
#902500
1!
1@
1A
#905000
0!
0@
0A
#907500
1!
1@
1A
#910000
0!
0@
0A
#912500
1!
1@
1A
#915000
0!
0@
0A
#917500
1!
1@
1A
