ECE2504/Homework09/quartus/simulation/qsim/hw9.msim.vcd
$comment
	File created using the following command:
		vcd file hw9.msim.vcd -direction
$end
$date
	Tue Oct 24 23:23:07 2017
$end
$version
	ModelSim Version 10.5b
$end
$timescale
	1ps
$end

$scope module hw9_vlg_vec_tst $end
$var reg 1 ! a $end
$var reg 1 " b $end
$var reg 1 # c $end
$var reg 1 $ d $end
$var reg 1 % e $end
$var reg 1 & f $end
$var wire 1 ' y $end

$scope module i1 $end
$var wire 1 ( gnd $end
$var wire 1 ) vcc $end
$var wire 1 * unknown $end
$var tri1 1 + devclrn $end
$var tri1 1 , devpor $end
$var tri1 1 - devoe $end
$var wire 1 . y~output_o $end
$var wire 1 / e~input_o $end
$var wire 1 0 d~input_o $end
$var wire 1 1 f~input_o $end
$var wire 1 2 c~input_o $end
$var wire 1 3 inst12|y~1_combout $end
$var wire 1 4 a~input_o $end
$var wire 1 5 b~input_o $end
$var wire 1 6 inst12|y~0_combout $end
$var wire 1 7 inst12|y~2_combout $end
$upscope $end
$upscope $end
$enddefinitions $end
#0
$dumpvars
0!
0"
0#
0$
0%
0&
0'
0(
1)
x*
1+
1,
1-
0.
0/
00
01
02
03
04
05
06
07
$end
#15625
1&
11
13
17
1.
1'
#31250
1%
0&
1/
01
#46875
1&
11
03
07
0.
0'
#62500
1$
0%
0&
10
0/
01
13
17
1.
1'
#78125
1&
11
03
07
0.
0'
#93750
1%
0&
1/
01
#109375
1&
11
13
17
1.
1'
#125000
1#
0$
0%
0&
12
00
0/
01
03
07
0.
0'
#140625
1&
11
13
17
1.
1'
#156250
1%
0&
1/
01
#171875
1&
11
03
07
0.
0'
#187500
1$
0%
0&
10
0/
01
13
17
1.
1'
#203125
1&
11
03
07
0.
0'
#218750
1%
0&
1/
01
13
17
1.
1'
#234375
1&
11
#250000
1"
0#
0$
0%
0&
15
02
00
0/
01
03
07
0.
0'
#265625
1&
11
16
13
17
1.
1'
#281250
1%
0&
1/
01
06
#296875
1&
11
03
07
0.
0'
#312500
1$
0%
0&
10
0/
01
13
17
1.
1'
#328125
1&
11
16
03
#343750
1%
0&
1/
01
06
07
0.
0'
#359375
1&
11
13
17
1.
1'
#375000
1#
0$
0%
0&
12
00
0/
01
03
07
0.
0'
#390625
1&
11
16
13
17
1.
1'
#406250
1%
0&
1/
01
06
#421875
1&
11
03
07
0.
0'
#437500
1$
0%
0&
10
0/
01
13
17
1.
1'
#453125
1&
11
16
03
#468750
1%
0&
1/
01
06
13
#484375
1&
11
#500000
1!
0"
0#
0$
0%
0&
14
05
02
00
0/
01
16
03
#515625
1&
11
06
13
#531250
1%
0&
1/
01
#546875
1&
11
03
07
0.
0'
#562500
1$
0%
0&
10
0/
01
13
16
17
1.
1'
#578125
1&
11
06
03
07
0.
0'
#593750
1%
0&
1/
01
#609375
1&
11
13
17
1.
1'
#625000
1#
0$
0%
0&
12
00
0/
01
03
16
#640625
1&
11
06
13
#656250
1%
0&
1/
01
#671875
1&
11
03
07
0.
0'
#687500
1$
0%
0&
10
0/
01
13
16
17
1.
1'
#703125
1&
11
06
03
07
0.
0'
#718750
1%
0&
1/
01
13
17
1.
1'
#734375
1&
11
#750000
1"
0#
0$
0%
0&
15
02
00
0/
01
16
03
#765625
1&
11
13
#781250
1%
0&
1/
01
06
#796875
1&
11
03
07
0.
0'
#812500
1$
0%
0&
10
0/
01
13
16
17
1.
1'
#828125
1&
11
03
#843750
1%
0&
1/
01
06
07
0.
0'
#859375
1&
11
13
17
1.
1'
#875000
1#
0$
0%
0&
12
00
0/
01
03
16
#890625
1&
11
13
#906250
1%
0&
1/
01
06
#921875
1&
11
03
07
0.
0'
#937500
1$
0%
0&
10
0/
01
13
16
17
1.
1'
#953125
1&
11
03
#968750
1%
0&
1/
01
06
13
#984375
1&
11
