Project02/alu_quartus/simulation/qsim/alu.msim.vcd
$comment
	File created using the following command:
		vcd file alu.msim.vcd -direction
$end
$date
	Wed Nov 01 19:54:22 2017
$end
$version
	ModelSim Version 10.5b
$end
$timescale
	1ps
$end

$scope module alu_vlg_vec_tst $end
$var reg 8 ! a [7:0] $end
$var reg 8 " b [7:0] $end
$var reg 4 # op0 [3:0] $end
$var reg 4 $ op1 [3:0] $end
$var reg 4 % op2 [3:0] $end
$var wire 1 & r0 [7] $end
$var wire 1 ' r0 [6] $end
$var wire 1 ( r0 [5] $end
$var wire 1 ) r0 [4] $end
$var wire 1 * r0 [3] $end
$var wire 1 + r0 [2] $end
$var wire 1 , r0 [1] $end
$var wire 1 - r0 [0] $end
$var wire 1 . r1 [7] $end
$var wire 1 / r1 [6] $end
$var wire 1 0 r1 [5] $end
$var wire 1 1 r1 [4] $end
$var wire 1 2 r1 [3] $end
$var wire 1 3 r1 [2] $end
$var wire 1 4 r1 [1] $end
$var wire 1 5 r1 [0] $end
$var wire 1 6 r2 [7] $end
$var wire 1 7 r2 [6] $end
$var wire 1 8 r2 [5] $end
$var wire 1 9 r2 [4] $end
$var wire 1 : r2 [3] $end
$var wire 1 ; r2 [2] $end
$var wire 1 < r2 [1] $end
$var wire 1 = r2 [0] $end
$var wire 1 > VZCN0 [3] $end
$var wire 1 ? VZCN0 [2] $end
$var wire 1 @ VZCN0 [1] $end
$var wire 1 A VZCN0 [0] $end
$var wire 1 B VZCN1 [3] $end
$var wire 1 C VZCN1 [2] $end
$var wire 1 D VZCN1 [1] $end
$var wire 1 E VZCN1 [0] $end
$var wire 1 F VZCN2 [3] $end
$var wire 1 G VZCN2 [2] $end
$var wire 1 H VZCN2 [1] $end
$var wire 1 I VZCN2 [0] $end

$scope module i1 $end
$var wire 1 J gnd $end
$var wire 1 K vcc $end
$var wire 1 L unknown $end
$var tri1 1 M devclrn $end
$var tri1 1 N devpor $end
$var tri1 1 O devoe $end
$var wire 1 P r0[7]~output_o $end
$var wire 1 Q r0[6]~output_o $end
$var wire 1 R r0[5]~output_o $end
$var wire 1 S r0[4]~output_o $end
$var wire 1 T r0[3]~output_o $end
$var wire 1 U r0[2]~output_o $end
$var wire 1 V r0[1]~output_o $end
$var wire 1 W r0[0]~output_o $end
$var wire 1 X r1[7]~output_o $end
$var wire 1 Y r1[6]~output_o $end
$var wire 1 Z r1[5]~output_o $end
$var wire 1 [ r1[4]~output_o $end
$var wire 1 \ r1[3]~output_o $end
$var wire 1 ] r1[2]~output_o $end
$var wire 1 ^ r1[1]~output_o $end
$var wire 1 _ r1[0]~output_o $end
$var wire 1 ` r2[7]~output_o $end
$var wire 1 a r2[6]~output_o $end
$var wire 1 b r2[5]~output_o $end
$var wire 1 c r2[4]~output_o $end
$var wire 1 d r2[3]~output_o $end
$var wire 1 e r2[2]~output_o $end
$var wire 1 f r2[1]~output_o $end
$var wire 1 g r2[0]~output_o $end
$var wire 1 h VZCN0[3]~output_o $end
$var wire 1 i VZCN0[2]~output_o $end
$var wire 1 j VZCN0[1]~output_o $end
$var wire 1 k VZCN0[0]~output_o $end
$var wire 1 l VZCN1[3]~output_o $end
$var wire 1 m VZCN1[2]~output_o $end
$var wire 1 n VZCN1[1]~output_o $end
$var wire 1 o VZCN1[0]~output_o $end
$var wire 1 p VZCN2[3]~output_o $end
$var wire 1 q VZCN2[2]~output_o $end
$var wire 1 r VZCN2[1]~output_o $end
$var wire 1 s VZCN2[0]~output_o $end
$var wire 1 t a[7]~input_o $end
$var wire 1 u op0[3]~input_o $end
$var wire 1 v op0[0]~input_o $end
$var wire 1 w op0[1]~input_o $end
$var wire 1 x inst|result[7]~4_combout $end
$var wire 1 y inst|result[7]~3_combout $end
$var wire 1 z b[4]~input_o $end
$var wire 1 { inst|result[7]~5_combout $end
$var wire 1 | inst|result[7]~2_combout $end
$var wire 1 } b[7]~input_o $end
$var wire 1 ~ inst|xnorg[7]~combout $end
$var wire 1 !! b[6]~input_o $end
$var wire 1 "! inst|result[7]~6_combout $end
$var wire 1 #! op0[2]~input_o $end
$var wire 1 $! inst|result[7]~9_combout $end
$var wire 1 %! inst|result[7]~8_combout $end
$var wire 1 &! inst|Equal7~0_combout $end
$var wire 1 '! inst|Equal7~1_combout $end
$var wire 1 (! inst|add_b[6]~0_combout $end
$var wire 1 )! inst|add_b[7]~1_combout $end
$var wire 1 *! a[5]~input_o $end
$var wire 1 +! a[4]~input_o $end
$var wire 1 ,! b[3]~input_o $end
$var wire 1 -! inst|add_b[3]~5_combout $end
$var wire 1 .! a[2]~input_o $end
$var wire 1 /! b[2]~input_o $end
$var wire 1 0! inst|add_b[2]~6_combout $end
$var wire 1 1! a[0]~input_o $end
$var wire 1 2! inst|add_a~0_combout $end
$var wire 1 3! b[0]~input_o $end
$var wire 1 4! inst|add_b[0]~8_combout $end
$var wire 1 5! inst|addg|fa0[0]|g2~0_combout $end
$var wire 1 6! a[1]~input_o $end
$var wire 1 7! b[1]~input_o $end
$var wire 1 8! inst|add_b[1]~7_combout $end
$var wire 1 9! inst|addg|fa0[1]|g2~0_combout $end
$var wire 1 :! inst|addg|fa0[2]|g2~0_combout $end
$var wire 1 ;! a[3]~input_o $end
$var wire 1 <! inst|addg|fa0[3]|g2~0_combout $end
$var wire 1 =! inst|add_b[4]~4_combout $end
$var wire 1 >! inst|addg|fa0[4]|g2~0_combout $end
$var wire 1 ?! b[5]~input_o $end
$var wire 1 @! inst|add_b[5]~3_combout $end
$var wire 1 A! inst|addg|fa0[5]|g2~0_combout $end
$var wire 1 B! inst|add_b[6]~2_combout $end
$var wire 1 C! a[6]~input_o $end
$var wire 1 D! inst|addg|fa0[6]|g2~0_combout $end
$var wire 1 E! inst|addg|fa0[7]|g1|g0~combout $end
$var wire 1 F! inst|result[7]~10_combout $end
$var wire 1 G! inst3|andg[7]~combout $end
$var wire 1 H! inst|result[7]~7_combout $end
$var wire 1 I! inst|result[7]~11_combout $end
$var wire 1 J! inst|addg|fa0[6]|g1|g0~combout $end
$var wire 1 K! inst|result[6]~14_combout $end
$var wire 1 L! inst3|andg[6]~combout $end
$var wire 1 M! inst|xnorg[6]~combout $end
$var wire 1 N! inst|result[6]~12_combout $end
$var wire 1 O! inst|result[6]~13_combout $end
$var wire 1 P! inst|result[6]~15_combout $end
$var wire 1 Q! inst|addg|fa0[5]|g1|g0~combout $end
$var wire 1 R! inst|result[5]~18_combout $end
$var wire 1 S! inst3|andg[5]~combout $end
$var wire 1 T! inst|result[5]~16_combout $end
$var wire 1 U! inst|xnorg[5]~combout $end
$var wire 1 V! inst|result[5]~17_combout $end
$var wire 1 W! inst|result[5]~19_combout $end
$var wire 1 X! inst|result[4]~20_combout $end
$var wire 1 Y! inst|xnorg[4]~combout $end
$var wire 1 Z! inst|result[4]~21_combout $end
$var wire 1 [! inst|addg|fa0[4]|g1|g0~combout $end
$var wire 1 \! inst|result[4]~22_combout $end
$var wire 1 ]! inst3|andg[4]~combout $end
$var wire 1 ^! inst|result[4]~23_combout $end
$var wire 1 _! inst3|andg[3]~combout $end
$var wire 1 `! inst|result[3]~24_combout $end
$var wire 1 a! inst|xnorg[3]~combout $end
$var wire 1 b! inst|result[3]~25_combout $end
$var wire 1 c! inst|addg|fa0[3]|g1|g0~combout $end
$var wire 1 d! inst|result[3]~26_combout $end
$var wire 1 e! inst|result[3]~27_combout $end
$var wire 1 f! inst|result[2]~28_combout $end
$var wire 1 g! inst|result[7]~30_combout $end
$var wire 1 h! inst|result[7]~31_combout $end
$var wire 1 i! inst|result[2]~32_combout $end
$var wire 1 j! inst|addg|fa0[2]|g1|g0~combout $end
$var wire 1 k! inst|result[7]~29_combout $end
$var wire 1 l! inst|result[2]~33_combout $end
$var wire 1 m! inst|result[2]~34_combout $end
$var wire 1 n! inst|addg|fa0[1]|g1|g0~combout $end
$var wire 1 o! inst|result[1]~41_combout $end
$var wire 1 p! inst|result~38_combout $end
$var wire 1 q! inst|result~39_combout $end
$var wire 1 r! inst|result[7]~36_combout $end
$var wire 1 s! inst|result[1]~37_combout $end
$var wire 1 t! inst|result[7]~35_combout $end
$var wire 1 u! inst|result[1]~40_combout $end
$var wire 1 v! inst|result[1]~42_combout $end
$var wire 1 w! inst|result[0]~49_combout $end
$var wire 1 x! inst|result[0]~43_combout $end
$var wire 1 y! inst|result[0]~44_combout $end
$var wire 1 z! inst|result[0]~45_combout $end
$var wire 1 {! inst|result[0]~46_combout $end
$var wire 1 |! inst|addg|fa0[0]|g1|g0~0_combout $end
$var wire 1 }! inst|result[0]~47_combout $end
$var wire 1 ~! inst|result[0]~48_combout $end
$var wire 1 !" op1[3]~input_o $end
$var wire 1 "" op1[2]~input_o $end
$var wire 1 #" op1[1]~input_o $end
$var wire 1 $" inst2|result[7]~7_combout $end
$var wire 1 %" op1[0]~input_o $end
$var wire 1 &" inst2|Equal7~1_combout $end
$var wire 1 '" inst2|add_b[6]~0_combout $end
$var wire 1 (" inst2|Equal7~0_combout $end
$var wire 1 )" inst2|add_b[7]~1_combout $end
$var wire 1 *" inst2|add_b[5]~3_combout $end
$var wire 1 +" inst2|add_a~0_combout $end
$var wire 1 ," inst2|add_b[3]~5_combout $end
$var wire 1 -" inst2|add_b[2]~6_combout $end
$var wire 1 ." inst2|add_b[1]~7_combout $end
$var wire 1 /" inst2|add_b[0]~8_combout $end
$var wire 1 0" inst2|addg|fa0[0]|g2~0_combout $end
$var wire 1 1" inst2|addg|fa0[1]|g2~0_combout $end
$var wire 1 2" inst2|addg|fa0[2]|g2~0_combout $end
$var wire 1 3" inst2|addg|fa0[3]|g2~0_combout $end
$var wire 1 4" inst2|add_b[4]~4_combout $end
$var wire 1 5" inst2|addg|fa0[4]|g2~0_combout $end
$var wire 1 6" inst2|addg|fa0[5]|g2~0_combout $end
$var wire 1 7" inst2|add_b[6]~2_combout $end
$var wire 1 8" inst2|addg|fa0[6]|g2~0_combout $end
$var wire 1 9" inst2|addg|fa0[7]|g1|g0~combout $end
$var wire 1 :" inst2|result[7]~9_combout $end
$var wire 1 ;" inst2|result[7]~8_combout $end
$var wire 1 <" inst2|result[7]~10_combout $end
$var wire 1 =" inst2|result[7]~3_combout $end
$var wire 1 >" inst2|result[7]~4_combout $end
$var wire 1 ?" inst2|result[7]~5_combout $end
$var wire 1 @" inst2|result[7]~2_combout $end
$var wire 1 A" inst2|result[7]~6_combout $end
$var wire 1 B" inst2|result[7]~11_combout $end
$var wire 1 C" inst2|addg|fa0[6]|g1|g0~combout $end
$var wire 1 D" inst2|result[6]~14_combout $end
$var wire 1 E" inst2|result[6]~12_combout $end
$var wire 1 F" inst2|result[6]~13_combout $end
$var wire 1 G" inst2|result[6]~15_combout $end
$var wire 1 H" inst2|result[5]~16_combout $end
$var wire 1 I" inst2|result[5]~17_combout $end
$var wire 1 J" inst2|addg|fa0[5]|g1|g0~combout $end
$var wire 1 K" inst2|result[5]~18_combout $end
$var wire 1 L" inst2|result[5]~19_combout $end
$var wire 1 M" inst2|addg|fa0[4]|g1|g0~combout $end
$var wire 1 N" inst2|result[4]~22_combout $end
$var wire 1 O" inst2|result[4]~20_combout $end
$var wire 1 P" inst2|result[4]~21_combout $end
$var wire 1 Q" inst2|result[4]~23_combout $end
$var wire 1 R" inst2|result[3]~24_combout $end
$var wire 1 S" inst2|result[3]~25_combout $end
$var wire 1 T" inst2|addg|fa0[3]|g1|g0~combout $end
$var wire 1 U" inst2|result[3]~26_combout $end
$var wire 1 V" inst2|result[3]~27_combout $end
$var wire 1 W" inst2|addg|fa0[2]|g1|g0~combout $end
$var wire 1 X" inst2|result[7]~29_combout $end
$var wire 1 Y" inst2|result[7]~30_combout $end
$var wire 1 Z" inst2|result[7]~31_combout $end
$var wire 1 [" inst2|result[2]~32_combout $end
$var wire 1 \" inst2|result[2]~33_combout $end
$var wire 1 ]" inst2|result[2]~28_combout $end
$var wire 1 ^" inst2|result[2]~34_combout $end
$var wire 1 _" inst2|result[7]~35_combout $end
$var wire 1 `" inst2|addg|fa0[1]|g1|g0~combout $end
$var wire 1 a" inst2|result[7]~36_combout $end
$var wire 1 b" inst2|result[1]~37_combout $end
$var wire 1 c" inst2|result~38_combout $end
$var wire 1 d" inst2|result~39_combout $end
$var wire 1 e" inst2|result[1]~40_combout $end
$var wire 1 f" inst2|result[1]~41_combout $end
$var wire 1 g" inst2|result[1]~42_combout $end
$var wire 1 h" inst2|addg|fa0[0]|g1|g0~0_combout $end
$var wire 1 i" inst2|result[0]~47_combout $end
$var wire 1 j" inst2|result[0]~49_combout $end
$var wire 1 k" inst2|result[0]~43_combout $end
$var wire 1 l" inst2|result[0]~45_combout $end
$var wire 1 m" inst2|result[0]~44_combout $end
$var wire 1 n" inst2|result[0]~46_combout $end
$var wire 1 o" inst2|result[0]~48_combout $end
$var wire 1 p" op2[2]~input_o $end
$var wire 1 q" op2[3]~input_o $end
$var wire 1 r" op2[1]~input_o $end
$var wire 1 s" inst3|result[7]~7_combout $end
$var wire 1 t" op2[0]~input_o $end
$var wire 1 u" inst3|result[7]~3_combout $end
$var wire 1 v" inst3|result[7]~4_combout $end
$var wire 1 w" inst3|result[7]~5_combout $end
$var wire 1 x" inst3|result[7]~2_combout $end
$var wire 1 y" inst3|result[7]~6_combout $end
$var wire 1 z" inst3|result[7]~9_combout $end
$var wire 1 {" inst3|result[7]~8_combout $end
$var wire 1 |" inst3|Equal7~1_combout $end
$var wire 1 }" inst3|Equal7~0_combout $end
$var wire 1 ~" inst3|add_b[6]~0_combout $end
$var wire 1 !# inst3|add_b[7]~1_combout $end
$var wire 1 "# inst3|add_b[6]~2_combout $end
$var wire 1 ## inst3|add_b[5]~3_combout $end
$var wire 1 $# inst3|add_b[4]~4_combout $end
$var wire 1 %# inst3|add_a~0_combout $end
$var wire 1 &# inst3|add_b[3]~5_combout $end
$var wire 1 '# inst3|add_b[2]~6_combout $end
$var wire 1 (# inst3|add_b[1]~7_combout $end
$var wire 1 )# inst3|add_b[0]~8_combout $end
$var wire 1 *# inst3|addg|fa0[0]|g2~0_combout $end
$var wire 1 +# inst3|addg|fa0[1]|g2~0_combout $end
$var wire 1 ,# inst3|addg|fa0[2]|g2~0_combout $end
$var wire 1 -# inst3|addg|fa0[3]|g2~0_combout $end
$var wire 1 .# inst3|addg|fa0[4]|g2~0_combout $end
$var wire 1 /# inst3|addg|fa0[5]|g2~0_combout $end
$var wire 1 0# inst3|addg|fa0[6]|g2~0_combout $end
$var wire 1 1# inst3|addg|fa0[7]|g1|g0~combout $end
$var wire 1 2# inst3|result[7]~10_combout $end
$var wire 1 3# inst3|result[7]~11_combout $end
$var wire 1 4# inst3|result[6]~12_combout $end
$var wire 1 5# inst3|result[6]~13_combout $end
$var wire 1 6# inst3|addg|fa0[6]|g1|g0~combout $end
$var wire 1 7# inst3|result[6]~14_combout $end
$var wire 1 8# inst3|result[6]~15_combout $end
$var wire 1 9# inst3|addg|fa0[5]|g1|g0~combout $end
$var wire 1 :# inst3|result[5]~18_combout $end
$var wire 1 ;# inst3|result[5]~16_combout $end
$var wire 1 <# inst3|result[5]~17_combout $end
$var wire 1 =# inst3|result[5]~19_combout $end
$var wire 1 ># inst3|result[4]~20_combout $end
$var wire 1 ?# inst3|result[4]~21_combout $end
$var wire 1 @# inst3|addg|fa0[4]|g1|g0~combout $end
$var wire 1 A# inst3|result[4]~22_combout $end
$var wire 1 B# inst3|result[4]~23_combout $end
$var wire 1 C# inst3|result[3]~24_combout $end
$var wire 1 D# inst3|result[3]~25_combout $end
$var wire 1 E# inst3|addg|fa0[3]|g1|g0~combout $end
$var wire 1 F# inst3|result[3]~26_combout $end
$var wire 1 G# inst3|result[3]~27_combout $end
$var wire 1 H# inst3|result[2]~28_combout $end
$var wire 1 I# inst3|addg|fa0[2]|g1|g0~combout $end
$var wire 1 J# inst3|result[7]~29_combout $end
$var wire 1 K# inst3|result[7]~30_combout $end
$var wire 1 L# inst3|result[7]~31_combout $end
$var wire 1 M# inst3|result[2]~32_combout $end
$var wire 1 N# inst3|result[2]~33_combout $end
$var wire 1 O# inst3|result[2]~34_combout $end
$var wire 1 P# inst3|addg|fa0[1]|g1|g0~combout $end
$var wire 1 Q# inst3|result[1]~41_combout $end
$var wire 1 R# inst3|result~38_combout $end
$var wire 1 S# inst3|result~39_combout $end
$var wire 1 T# inst3|result[7]~35_combout $end
$var wire 1 U# inst3|result[7]~36_combout $end
$var wire 1 V# inst3|result[1]~37_combout $end
$var wire 1 W# inst3|result[1]~40_combout $end
$var wire 1 X# inst3|result[1]~42_combout $end
$var wire 1 Y# inst3|result[0]~43_combout $end
$var wire 1 Z# inst3|result[0]~44_combout $end
$var wire 1 [# inst3|result[0]~49_combout $end
$var wire 1 \# inst3|result[0]~45_combout $end
$var wire 1 ]# inst3|result[0]~46_combout $end
$var wire 1 ^# inst3|addg|fa0[0]|g1|g0~0_combout $end
$var wire 1 _# inst3|result[0]~47_combout $end
$var wire 1 `# inst3|result[0]~48_combout $end
$var wire 1 a# inst|addg|fa0[7]|g2~0_combout $end
$var wire 1 b# inst|status~0_combout $end
$var wire 1 c# inst|status[3]~1_combout $end
$var wire 1 d# inst|status[2]~3_combout $end
$var wire 1 e# inst|status[2]~2_combout $end
$var wire 1 f# inst|status[2]~4_combout $end
$var wire 1 g# inst|status[1]~5_combout $end
$var wire 1 h# inst2|addg|fa0[7]|g2~0_combout $end
$var wire 1 i# inst2|status~0_combout $end
$var wire 1 j# inst2|status[3]~1_combout $end
$var wire 1 k# inst2|status[2]~3_combout $end
$var wire 1 l# inst2|status[2]~2_combout $end
$var wire 1 m# inst2|status[2]~4_combout $end
$var wire 1 n# inst2|status[1]~5_combout $end
$var wire 1 o# inst3|addg|fa0[7]|g2~0_combout $end
$var wire 1 p# inst3|status~0_combout $end
$var wire 1 q# inst3|status[3]~1_combout $end
$var wire 1 r# inst3|status[2]~3_combout $end
$var wire 1 s# inst3|status[2]~2_combout $end
$var wire 1 t# inst3|status[2]~4_combout $end
$var wire 1 u# inst3|status[1]~5_combout $end
$var wire 1 v# inst|status [3] $end
$var wire 1 w# inst|status [2] $end
$var wire 1 x# inst|status [1] $end
$var wire 1 y# inst|status [0] $end
$var wire 1 z# inst2|status [3] $end
$var wire 1 {# inst2|status [2] $end
$var wire 1 |# inst2|status [1] $end
$var wire 1 }# inst2|status [0] $end
$var wire 1 ~# inst3|status [3] $end
$var wire 1 !$ inst3|status [2] $end
$var wire 1 "$ inst3|status [1] $end
$var wire 1 #$ inst3|status [0] $end
$upscope $end
$upscope $end
$enddefinitions $end
#0
$dumpvars
b10001 !
b10101001 "
b110 #
bx $
bx %
0-
0,
0+
1*
0)
1(
1'
0&
x5
x4
x3
x2
x1
x0
x/
x.
x=
x<
x;
x:
x9
x8
x7
x6
0A
0@
0?
0>
xE
xD
xC
xB
xI
xH
xG
xF
0J
1K
xL
1M
1N
1O
0P
1Q
1R
0S
1T
0U
0V
0W
xX
xY
xZ
x[
x\
x]
x^
x_
x`
xa
xb
xc
xd
xe
xf
xg
0h
0i
0j
0k
xl
xm
xn
xo
xp
xq
xr
xs
0t
0u
0v
1w
0x
0y
0z
1{
0|
1}
1~
0!!
0"!
1#!
1$!
1%!
1&!
0'!
0(!
0)!
0*!
1+!
1,!
0-!
0.!
0/!
10!
11!
02!
13!
04!
15!
06!
07!
18!
19!
1:!
0;!
0<!
1=!
1>!
1?!
0@!
0A!
1B!
0C!
0D!
0E!
0F!
0G!
1H!
0I!
1J!
1K!
0L!
0M!
1N!
1O!
1P!
1Q!
1R!
0S!
1T!
1U!
0V!
1W!
1X!
1Y!
0Z!
0[!
0\!
0]!
0^!
0_!
1`!
1a!
0b!
1c!
1d!
1e!
0f!
1g!
1h!
1i!
0j!
1k!
0l!
0m!
0n!
0o!
0p!
0q!
1r!
0s!
1t!
1u!
0v!
1w!
1x!
1y!
1z!
1{!
0|!
0}!
0~!
x!"
x""
x#"
x$"
x%"
x&"
x'"
x("
x)"
x*"
x+"
x,"
x-"
x."
x/"
x0"
x1"
x2"
x3"
x4"
x5"
x6"
x7"
x8"
x9"
x:"
x;"
x<"
x="
x>"
x?"
x@"
xA"
xB"
xC"
xD"
xE"
xF"
xG"
xH"
xI"
xJ"
xK"
xL"
xM"
xN"
xO"
xP"
xQ"
xR"
xS"
xT"
xU"
xV"
xW"
xX"
xY"
xZ"
x["
x\"
x]"
x^"
1_"
x`"
xa"
xb"
xc"
0d"
xe"
xf"
xg"
xh"
xi"
xj"
xk"
xl"
xm"
xn"
xo"
xp"
xq"
xr"
xs"
xt"
xu"
xv"
xw"
xx"
xy"
xz"
x{"
x|"
x}"
x~"
x!#
x"#
x##
x$#
x%#
x&#
x'#
x(#
x)#
x*#
x+#
x,#
x-#
x.#
x/#
x0#
x1#
x2#
x3#
x4#
x5#
x6#
x7#
x8#
x9#
x:#
x;#
x<#
x=#
x>#
x?#
x@#
xA#
xB#
xC#
xD#
xE#
xF#
xG#
xH#
xI#
xJ#
xK#
xL#
xM#
xN#
xO#
xP#
xQ#
xR#
0S#
1T#
xU#
xV#
xW#
xX#
xY#
xZ#
x[#
x\#
x]#
x^#
x_#
x`#
0a#
1b#
0c#
0d#
1e#
0f#
0g#
xh#
xi#
xj#
xk#
xl#
xm#
xn#
xo#
xp#
xq#
xr#
xs#
xt#
xu#
0y#
zx#
0w#
zv#
x}#
z|#
x{#
zz#
x#$
z"$
x!$
z~#
$end
#80000
b100 #
b101 #
b1010001 !
b1110001 !
b1110101 !
b1110111 !
b11101001 "
b11111001 "
b11110001 "
b11110101 "
1/!
0,!
1z
1!!
16!
1.!
1*!
1C!
1v
0w
0g!
00!
0k!
0a!
1-!
1]!
0Y!
0=!
1L!
0B!
0U#
xT#
xS#
xd"
0a"
x_"
0r!
1n!
1j!
0U!
1S!
0Q!
1A!
0J!
1D!
1'!
0&!
1y
0u!
1s!
0i!
1|
0j!
1b!
0c!
1<!
1Z!
1[!
0>!
0s!
1o!
1k!
1V!
0R!
0K!
1E!
1B!
1@!
1=!
08!
14!
10!
0-!
1)!
1|!
05!
0X!
0T!
0N!
1u!
1"!
1c#
1h
1l!
0k!
0d!
1>!
1\!
0u!
1F!
1J!
09!
0|!
15!
1j!
1c!
0<!
1a#
0E!
1}!
0Z!
0V!
0O!
1>
1v!
0W!
0P!
0Q
0R
1V
0l!
1Q!
1K!
0j!
0}!
0n!
19!
1k!
1d!
0[!
0F!
1d#
1,
0(
0'
1m!
0e!
1^!
1I!
1g#
0c#
1~!
1W
0h
1j
1P
1S
0T
1U
1R!
1l!
0k!
0o!
1j!
0\!
1f#
0d#
1+
0*
1)
1&
1@
0>
1-
0m!
1P!
0~!
1e!
0I!
1y#
1k
0P
1T
0W
1Q
0U
0l!
1k!
0f#
0+
1'
0-
1*
0&
1A
1W!
1m!
0v!
0^!
0y#
0k
0S
0V
1U
1R
1l!
1(
1+
0,
0)
0A
0m!
0U
0+
1m!
1U
1+
#160000
b1 #
b11110111 !
b11100111 !
b1110101 "
b1110111 "
b1110110 "
b11000111 !
03!
17!
0}
0+!
0*!
1t
0#!
0x!
0w!
0t!
04!
xU#
1K#
xa"
1Y"
1r!
1g!
1X!
18!
0)!
0]!
1[!
1Y!
0>!
1U!
1T!
0S!
0Q!
1E!
0{
0b#
0l!
1i!
0H!
0'!
0%!
1~!
1W
0z!
1|!
05!
1s!
1Z!
1n!
0E!
1\!
1Q!
0A!
1V!
1F!
0"!
1l!
1w!
0B!
0@!
0=!
08!
14!
00!
1-
0W!
0g#
0m!
0e!
1I!
1P
0T
0U
0j
0R
0{!
1}!
09!
1u!
1o!
0D!
0Q!
0[!
0|!
15!
0j!
0(
0@
0+
0*
1&
0I!
1m!
1y#
1k
1U
0P
1j!
0:!
0a#
1E!
0}!
0n!
19!
0k!
0&
1+
1A
0~!
1v!
0y#
0k
1V
0W
1k!
0c!
0o!
0j!
1:!
0-
1,
0A
0k!
1c!
#240000
b11001111 !
b1010110 "
b11 #
b10 #
b10001111 !
b1000110 "
b1000010 "
b1111 !
b11111 !
b11000010 "
b11000000 "
b111111 !
0v
1w
07!
0/!
0z
0?!
1}
1;!
1+!
1*!
0C!
0t
0y!
0r!
0h!
0g!
0$!
0y
0u!
0s!
0|
0U#
0T#
0K#
0a"
0_"
0Y"
0X!
0L#
0Z"
0T!
1{
0c!
1a!
0`!
1<!
1[!
1Q!
1N!
1M!
0L!
0J!
0E!
0i!
0d!
0\!
0R!
0K!
0F!
1`!
1X!
1T!
0b!
0Z!
0V!
0[!
1>!
0v!
0P!
0Q
0V
0l!
0Q!
1A!
1d#
0,
0'
1J!
1f#
0m!
0U
0+
1w#
1i
1?
#320000
b111011 !
b111001 !
b11000001 "
b0 #
b1111001 !
b11000101 "
b1101001 !
b11000111 "
b1001001 !
0w
13!
17!
1/!
06!
0.!
0+!
0*!
1C!
1}!
1o!
1|
1y
xT#
x_"
1x!
xU#
xK#
xa"
xY"
1r!
xL#
xZ"
1h!
0S#
0d"
1n!
09!
1j!
0:!
1[!
0Y!
0>!
0U!
1Q!
0A!
0M!
1L!
0J!
1D!
1b!
1Z!
1V!
1O!
1"!
0`!
0N!
1s!
1i!
0j!
1c!
0<!
0Q!
1J!
0D!
1E!
0b!
0O!
1u!
1l!
0[!
0E!
1e!
1^!
1W!
1P!
1I!
1P
1Q
1R
1S
1T
0f#
0d#
1*
1)
1(
1'
1&
0e!
0P!
1v!
1m!
1y#
1k
1U
1V
0Q
0T
0*
0'
1,
1+
1A
0w#
0i
0?
#400000
b1000 #
b1001000 !
b1000000 !
b11100111 "
b11110111 "
b1000100 !
b1000110 !
b1010 #
b1010110 !
b1110110 !
1z
1?!
01!
16!
1.!
0;!
1+!
1*!
1w
1u
1]!
1S!
1|!
1{!
05!
1T#
xS#
xd"
1_"
1t!
0r!
0n!
19!
1K#
1Y"
1j!
0h!
1g!
0c!
0a!
1`!
1[!
0X!
0T!
1Q!
0}!
1z!
1y!
0u!
0i!
1x
0x!
0m!
0U
1}!
1n!
09!
0o!
0j!
1:!
0l!
1i!
1b!
0Z!
0V!
0{!
1X!
1T!
0z!
0+
1~!
0v!
0V
1W
1o!
1j!
0:!
1l!
1c!
1Z!
1V!
1-
0,
0~!
1e!
0^!
0W!
0R
0S
1T
0W
0c!
0-
1*
0)
0(
1^!
1W!
1R
1S
1)
1(
#480000
b10110111 "
b10111111 "
b1110 #
b1111 #
b11110110 !
b111111 "
b10110110 !
b111 #
b10111110 !
b10101110 !
1;!
0+!
0C!
1t
1v
1#!
0u
1,!
0!!
0}
1c!
1_!
0]!
0[!
1Y!
1N!
0L!
0J!
1E!
1b#
1r!
1k!
1h!
1$!
0y
1H!
1%!
1x!
0s!
0|
1~!
1v!
1m!
1U
1V
1W
1d!
0Z!
1O!
1F!
1R!
0`!
0X!
0T!
0N!
0{
1u!
0"!
1-
1,
1+
0e!
0^!
0W!
0I!
0P
0R
0S
0T
1Z!
1d#
0*
0)
0(
0&
1e!
1I!
1W!
0y#
0k
1R
1P
1T
0d#
1*
1&
1(
0A
1y#
1k
1A
#560000
b111011 "
b111001 "
b10101111 !
b11001 "
b10101011 !
b10101001 !
b101 #
b10001001 !
b10001 "
b1 #
b11001001 !
b1001 #
b11000001 !
b11010001 !
0w
0#!
1u
11!
06!
0.!
0;!
1+!
0*!
1C!
07!
0/!
0,!
0?!
1z!
0y!
0u!
1s!
1f!
1|
1y
0x
12!
0x!
0|!
15!
0r!
0n!
xK#
xY"
0j!
0h!
0g!
0c!
0_!
1]!
1[!
0Y!
0S!
0Q!
1M!
1J!
0b!
0Z!
0O!
0~!
0m!
0U
0W
1u!
0V!
1`!
1T!
1|!
0w!
1j!
1c!
0[!
1Q!
0J!
0E!
19!
05!
0}!
0s!
0o!
0k!
0i!
0d!
1\!
0R!
1K!
0-
0+
0v!
0V
1b!
1V!
1}!
1{!
0l!
1k!
1d!
0\!
1R!
0K!
0F!
0j!
1:!
1n!
09!
0u!
0,
1v!
0W!
1m!
0e!
1^!
1P!
1Q
1S
0T
1U
0R
1V
0k!
0c!
1<!
1s!
1o!
1j!
0:!
1,
0(
1+
0*
1)
1'
1e!
1W!
1~!
0m!
0^!
0P!
0I!
0v!
0V
0P
0Q
0S
0U
1W
1R
1T
0d!
1[!
1u!
1k!
1c!
0<!
1*
1(
1-
0+
0)
0'
0&
0,
1m!
0y#
0k
1U
1\!
1d!
0[!
1+
0A
0e!
1v!
1V
0T
0\!
0*
1,
1^!
1e!
1T
1S
1)
1*
0^!
0S
0)
